{
	"hunter": {
		"Impale": { "is_ability" : "1" },
		"Agility": { "is_ability" : "1" },
		"Rally": { "is_ability" : "1" },
		"Focus": { "is_ability" : "1" },
		"Testosterone": { "is_ability" : "0" },
		"Adrenaline": { "is_ability" : "0" },
		"Somatotropin": { "is_ability" : "0" },
		"Beta-Endorphin": { "is_ability" : "0" }
	},
	"clockwork": {
		"Attack": { "is_ability" : "1" }
	},
	"ghost": {
		"Attack": { "is_ability" : "1" }
	},
	"priest": {
		"Attack": { "is_ability" : "1" }
	}
}